<?xml version="1.0" encoding="UTF-8"?>
<svg width="18px" height="18px" viewBox="0 0 18 18" version="1.1" xmlns="http://www.w3.org/2000/svg" xmlns:xlink="http://www.w3.org/1999/xlink">
    <title>youtube</title>
    <g id="Symbols" stroke="none" stroke-width="1" fill="none" fill-rule="evenodd">
        <g id="Footer" transform="translate(-307.000000, -536.000000)">
            <rect id="Rectangle" fill="#005C31" x="0" y="153" width="1440" height="440"></rect>
            <g id="youtube" transform="translate(307.000000, 536.000000)" fill="#FFFFFF" fill-rule="nonzero">
                <path d="M7.50535714,6.834375 L11.3303571,9.00803571 L7.50535714,11.1816964 L7.50535714,6.834375 Z M18,1.92857143 L18,16.0714286 C18,17.1361607 17.1361607,18 16.0714286,18 L1.92857143,18 C0.863839286,18 0,17.1361607 0,16.0714286 L0,1.92857143 C0,0.863839286 0.863839286,0 1.92857143,0 L16.0714286,0 C17.1361607,0 18,0.863839286 18,1.92857143 Z M16.3125,9.01205357 C16.3125,9.01205357 16.3125,6.61741071 16.0071429,5.46830357 C15.8383929,4.83348214 15.3441964,4.33526786 14.7133929,4.16651786 C13.5763393,3.85714286 9,3.85714286 9,3.85714286 C9,3.85714286 4.42366071,3.85714286 3.28660714,4.16651786 C2.65580357,4.33526786 2.16160714,4.83348214 1.99285714,5.46830357 C1.6875,6.61339286 1.6875,9.01205357 1.6875,9.01205357 C1.6875,9.01205357 1.6875,11.4066964 1.99285714,12.5558036 C2.16160714,13.190625 2.65580357,13.66875 3.28660714,13.8375 C4.42366071,14.1428571 9,14.1428571 9,14.1428571 C9,14.1428571 13.5763393,14.1428571 14.7133929,13.8334821 C15.3441964,13.6647321 15.8383929,13.1866071 16.0071429,12.5517857 C16.3125,11.4066964 16.3125,9.01205357 16.3125,9.01205357 L16.3125,9.01205357 Z" id="Shape"></path>
            </g>
        </g>
    </g>
</svg>